{
    "AcquisitionMatrix": "160,0,0,160",
    "Columns": 1440,
    "DeviceSerialNumber": 18926,
    "EchoTime": 0.023,
    "EchoTrainLength": 1,
    "EffectiveEchoSpacing": 0.001,
    "FlipAngle": 55,
    "ImagingFrequency": 297.20448,
    "InplanePhaseEncodingDirection": "COL",
    "InstitutionAddress": "Center Drive 10,Bethesda,Maryland,US,20892",
    "InstitutionName": "NIH 7T Research",
    "MRAcquisitionType": "2D",
    "MagneticFieldStrength": 6.98,
    "Manufacturer": "SIEMENS",
    "ManufacturerModelName": "Investigational_Device_7T",
    "MultibandAccelerationFactor": 2,
    "NumberofAverages": 1,
    "NumberofPhaseEncodingSteps": 119,
    "ParallelAcquisitionTechnique": "GRAPPA",
    "ParallelReductionFactorInPlane": 2,
    "PartialFourier": "6/8",
    "PercentPhaseFieldofView": 100,
    "PercentSampling": 100,
    "PhaseEncodingDirection": "j",
    "PixelBandwidth": 1420,
    "PixelSpacing": "1.2000000476837 1.2000000476837",
    "PulseSequenceType": "Multiband Gradient ECHO EPI",
    "RepetitionTime": 2.5,
    "Rows": 1440,
    "SAR": 0.06155064061711,
    "ScanOptions": "PFP_FS",
    "ScanningSequence": "EP",
    "SequenceName": "epfid2d1_160",
    "SequenceVariant": "SK_SS",
    "SeriesDescription": "TM_V3_MB2_1.2mm_2.5TR_PAT2_Axial_AP",
    "SliceThickness": 1.2000000476837,
    "SliceTiming": [
        0.0,
        1.845,
        1.183,
        0.517,
        2.362,
        1.697,
        1.035,
        0.37,
        2.215,
        1.55,
        0.887,
        0.222,
        2.068,
        1.403,
        0.738,
        0.075,
        1.92,
        1.255,
        0.59,
        2.435,
        1.773,
        1.107,
        0.442,
        2.287,
        1.625,
        0.96,
        0.295,
        2.14,
        1.477,
        0.813,
        0.147,
        1.992,
        1.33,
        0.665,
        0.0,
        1.845,
        1.183,
        0.517,
        2.362,
        1.697,
        1.035,
        0.37,
        2.215,
        1.55,
        0.887,
        0.222,
        2.068,
        1.403,
        0.738,
        0.075,
        1.92,
        1.255,
        0.59,
        2.435,
        1.773,
        1.107,
        0.442,
        2.287,
        1.625,
        0.96,
        0.295,
        2.14,
        1.477,
        0.813,
        0.147,
        1.992,
        1.33,
        0.665
    ],
    "SoftwareVersion": "syngo MR B17",
    "SpacingBetweenSlices": 1.2000000227743,
    "StationName": "FMRIFD7T",
    "TaskName": "nback",
    "TransmitCoilName": "32Ch_Head_7T"
}